[start]
20160101	0	20300101	0	50700	999999	0	0	1	1	0	150	0	0	0	0	7500	0	2000	0	500	0	0	0	Some Cats only appear here! All Cats here are Rare or above.
20180109	1100	20300101	1100	50700	999999	0	0	0	1	0	0	0	0	10000	0	0	0	0	0	0	0	0	0	
20170101	0	20300101	0	50700	999999	0	0	2	2	0	30	0	0	0	0	7500	0	2000	0	500	0	0	0		0	30	0	0	0	0	7500	0	2000	0	500	0	0	0	
20170101	0	20300101	0	50700	999999	0	0	3	2	0	75	0	0	0	0	7500	0	2000	0	500	0	0	0		0	75	0	0	0	0	7500	0	2000	0	500	0	0	0	
20181013	1100	20300101	1100	70400	999999	0	0	1	4	-1	150	0	0	0	0	7500	0	2000	0	500	0	0	0		-1	150	0	0	0	0	7500	0	2000	0	500	0	0	0		-1	150	0	0	0	0	7500	0	2000	0	500	0	0	0		320	0	0	0	0	0	0	0	0	0	10000	0	0	0	Get an Uber Rare Cat!! 100% Uber drop Rate in the PLATINUM CAPSULES!
20190416	1100	20190502	0	80400	999999	0	0	0	3	-1	150	0	0	0	0	7500	0	2000	0	500	0	0	0		-1	150	0	0	0	0	7500	0	2000	0	500	0	0	0		23	0	300	0	0	0	5100	0	3500	0	1400	0	0	0	【Limited Event】 Special chance for XP and Catamins! ★ On thru 5/1!
20190422	1100	20190429	1100	80400	999999	0	0	0	2	-1	150	0	0	0	0	7500	0	2000	0	500	0	0	0		5	0	0	2	500	0	7000	0	2000	0	500	0	0	0	★ Limited Capsules ★ Pick up extra Catseyes in this special Capsule set!
20190424	1100	20190426	1100	80400	999999	0	0	1	1	369	150	0	0	0	0	6970	0	2500	0	500	0	30	0	The mighty Dynamites are here! Variety and power await you!
20190426	1100	20190429	1100	80400	999999	0	0	1	1	377	150	0	0	0	0	6970	0	2500	0	500	1	30	0	Ultimate Cat artillery, with a top-secret Legend?! ★ Tap banner for info!
20190429	1100	20190501	1100	80400	999999	0	0	1	1	273	150	0	4	0	0	7000	0	2500	0	500	0	0	0	Metal Busters ★ With Increasing Capsule Discount!
20190501	1100	20190504	1100	80400	999999	0	0	1	1	360	150	0	0	0	0	6500	0	2600	0	900	0	0	0	New Uber "D'artanyan" is here! ★ Extra-high Uber drop rate for every draw!
20190504	1100	20190506	1100	80400	999999	0	0	1	1	245	150	0	4	0	0	7000	0	2500	0	500	0	0	0	★ Red Busters w/ Pai-Pai! ★ Plus Increasing Capsules!
20190506	1100	20190513	1100	80400	999999	0	0	0	2	-1	150	0	0	0	0	7500	0	2000	0	500	0	0	0		3	0	300	0	400	0	2000	0	7000	0	600	0	0	0	Limited Capsules ★ Collect Catfruit by drawing from this set!
20190506	1100	20190508	1100	80400	999999	0	0	1	1	342	150	0	0	0	0	7000	0	2500	0	500	0	0	0	★ Dark Heroes ★ Defend justice with superpowered Uber Cats!
20190508	1100	20190510	1100	80400	999999	0	0	1	1	354	150	0	0	0	0	7000	0	2500	0	500	0	0	0	Spooky beauties from the netherworld! It's the GIRLS & MONSTERS!
20190510	1100	20190513	1100	80400	999999	0	0	1	1	345	150	0	0	0	0	7000	0	2500	0	500	1	0	0	★ The Almighties! ★ Legendary Uber Cats with 11-Draw Guarantee!
20190513	1100	20190520	1100	80400	999999	0	0	0	2	-1	150	0	0	0	0	7500	0	2000	0	500	0	0	0		5	0	0	2	500	0	7000	0	2000	0	500	0	0	0	★ Limited Capsules ★ Pick up extra Catseyes in this special Capsule set!
20190513	1100	20190515	1100	80400	999999	0	0	1	1	336	150	0	0	0	0	6970	0	2500	0	500	0	30	0	★ Dragon Emperors ★ Collect a mighty monstrous Uber Cat!
20190515	1100	20190517	1100	80400	999999	0	0	1	1	333	150	0	0	0	0	6970	0	2500	0	500	0	30	0	★ Galaxy Gals★ Cute 'n' tough Uber Cats, with a new mystery member?!?!
20190516	1100	20190602	0	80400	999999	0	0	0	3	-1	150	0	0	0	0	7500	0	2000	0	500	0	0	0		-1	150	0	0	0	0	7500	0	2000	0	500	0	0	0		24	0	300	0	0	0	5100	0	3500	0	1400	0	0	0	【Limited Event】 Special chance for XP and Catamins! ★ On thru 6/1!
20190517	1100	20190520	1100	80400	999999	0	0	1	1	361	150	0	0	0	0	6500	0	2600	0	900	0	0	0	D'arktanyan is here! ★ Plus higher drop rate for Uber Rares!
[end]
