[start]
20160101	0	20300101	0	50700	999999	0	0	1	1	0	150	0	0	0	0	7500	0	2000	0	500	0	0	0	여기에서만 얻을 수 있는 레어 캐릭터가 100% 출현!!
20180109	1100	20300101	1100	50700	999999	0	0	0	1	0	0	0	0	10000	0	0	0	0	0	0	0	0	0	
20170101	0	20300101	0	80200	999999	0	0	2	3	0	30	0	0	0	0	7500	0	2000	0	500	0	0	0		0	30	0	0	0	0	7500	0	2000	0	500	0	0	0		0	30	0	0	0	0	7500	0	2000	0	500	0	0	0	
20170101	0	20300101	0	80200	999999	0	0	3	3	0	75	0	0	0	0	7500	0	2000	0	500	0	0	0		0	75	0	0	0	0	7500	0	2000	0	500	0	0	0		0	75	0	0	0	0	7500	0	2000	0	500	0	0	0	
20200424	1100	20300101	1100	90400	999999	0	0	1	4	-1	0	0	0	0	0	0	0	0	0	0	0	0	0		-1	0	0	0	0	0	0	0	0	0	0	0	0	0		-1	0	0	0	0	0	0	0	0	0	0	0	0	0		504	0	0	0	0	0	0	0	0	0	10000	0	0	0	울트라 슈퍼 레어 캐릭터를 반드시 뽑을 수 있는 「플래티넘 뽑기」
20200724	1100	20300101	1100	90700	999999	0	0	1	4	-1	0	0	0	0	0	0	0	0	0	0	0	0	0		-1	0	0	0	0	0	0	0	0	0	0	0	0	0		-1	0	0	0	0	0	0	0	0	0	0	0	0	0		510	0	0	0	0	0	0	0	0	0	10000	0	0	0	울트라 슈퍼 레어 캐릭터를 반드시 뽑을 수 있는 ★플래티넘 뽑기★
20200803	1100	20200810	1100	90700	999999	0	0	0	3	-1	0	0	0	0	0	0	0	0	0	0	0	0	0		-1	0	0	0	0	0	0	0	0	0	0	0	0	0		3	0	300	0	400	0	2000	0	7000	0	600	0	0	0	☆기간 한정★개다래를 획득할 수 있는 특별 뽑기!☆
20200803	1100	20200805	1100	90700	999999	0	0	1	1	448	150	0	0	0	0	6970	0	2500	0	500	0	30	0	★우주에서 온 개성 넘치는 깜찍한 정령들!★시크릿 참전!?★자세한 내용은 배너를 클릭!!★
20200805	1100	20200807	1100	90700	999999	0	0	1	1	427	150	0	0	0	0	6970	0	2500	0	500	0	30	0	★검은 적에 강한 멋진 환수들! 자세한 내용은 배너를 클릭!★
20200807	1100	20200810	1100	90700	999999	0	0	1	1	517	150	0	0	0	0	6970	0	2500	0	500	1	30	0	신 캐릭터 ★오이루가★ 참전! 수수께끼 투성이의 생명체들! 자세한 내용은 배너를 클릭!
20200807	1100	20300101	1100	90700	999999	0	0	1	4	-1	0	0	0	0	0	0	0	0	0	0	0	0	0		-1	0	0	0	0	0	0	0	0	0	0	0	0	0		-1	0	0	0	0	0	0	0	0	0	0	0	0	0		522	0	0	0	0	0	0	0	0	0	10000	0	0	0	울트라 슈퍼 레어 캐릭터를 반드시 뽑을 수 있는 「플래티넘 뽑기」
20200810	1100	20200817	1100	90700	999999	0	0	0	3	-1	0	0	0	0	0	0	0	0	0	0	0	0	0		-1	0	0	0	0	0	0	0	0	0	0	0	0	0		5	0	0	2	500	0	7000	0	2000	0	500	0	0	0	☆기간 한정★높은 확률로 캣츠아이를 획득할 수 있는 특별 뽑기!☆
20200810	1100	20200817	1100	90700	999999	0	0	1	1	515	150	0	0	0	0	7000	0	2500	0	500	0	0	0	에반게리온 캐릭터가 등장하는 콜라보 뽑기!★자세한 내용은 배너를 클릭! 
20200810	1100	20200812	1100	90700	999999	0	0	1	2	-1	0	0	0	0	0	0	0	0	0	0	0	0	0		506	150	0	0	0	0	6970	0	2500	0	500	0	30	0	이세계에서 소환된 유쾌한 미소녀들! 시크릿 미소녀 참전!★자세한 내용은 배너를 클릭!
20200812	1100	20200814	1100	90700	999999	0	0	1	2	-1	0	0	0	0	0	0	0	0	0	0	0	0	0		445	150	0	0	0	0	6970	0	2500	0	500	0	30	0	★냥코 군단의 초비밀 병기! 시크릿 참전!?★자세한 내용은 배너를 클릭!!★
20200814	1100	20200817	1100	90700	999999	0	0	1	1	515	150	0	0	0	0	7000	0	2500	0	500	1	0	0	에반게리온 캐릭터가 등장하는 콜라보 뽑기!★자세한 내용은 배너를 클릭! 
20200814	1100	20200817	1100	90700	999999	0	0	1	2	-1	0	0	0	0	0	0	0	0	0	0	0	0	0		430	150	0	0	0	0	6970	0	2500	0	500	1	30	0	♡파워풀&큐트한 소녀들♡자세한 내용은 배너를 클릭♡
20200816	1100	20200902	0	90700	999999	0	0	0	4	-1	0	0	0	0	0	0	0	0	0	0	0	0	0		-1	0	0	0	0	0	0	0	0	0	0	0	0	0		-1	0	0	0	0	0	0	0	0	0	0	0	0	0		48	0	300	0	0	0	5100	0	3500	0	1400	0	0	0	【기간한정】고양이 드링크와 XP를 GET할 수 있는 특별 뽑기!★ 9월 1일 까지!
20200817	1100	20200819	1100	90700	999999	0	0	1	1	433	150	0	0	0	0	6970	0	2500	0	500	0	30	0	압도적인 존재감을 내뿜는 강력한 드래곤들!★자세한 내용은 배너를 클릭!
20200819	1100	20200821	1100	90700	999999	0	0	1	1	451	150	0	4	0	0	7000	0	2500	0	500	0	0	0	빨간 적은 우리에게 맡겨달라냥! 한정 캐릭터도 등장!★보너스 업 이벤트 개최 중!
20200819	1100	20200821	1100	90700	999999	0	0	1	2	-1	0	0	0	0	0	0	0	0	0	0	0	0	0		452	150	0	4	0	0	7000	0	2500	0	500	0	0	0	떠있는 적에 강력한 '에어 바스터즈' 등장! !★보너스 업 이벤트 개최 중!
20200819	1100	20200821	1100	90700	999999	0	0	1	3	-1	0	0	0	0	0	0	0	0	0	0	0	0	0		-1	0	0	0	0	0	0	0	0	0	0	0	0	0		453	150	0	4	0	0	7000	0	2500	0	500	0	0	0	메탈 적에 절대적인 파워! 한정 캐릭터도 등장하는 특별 뽑기!★보너스 업 이벤트 개최 중!
20200821	1100	20200824	1100	90700	999999	0	0	1	1	521	150	0	0	0	0	6500	0	2600	0	900	0	0	0	한정 캐릭터 '화근의 마녀 캐슬리'가 새롭게 참전!★울슈레 확률 지금만 초 UP!!
[end]
