[start]
20180109	1100	20300101	0	60700	999999	0	0	0	1	0	0	0	0	10000	0	0	0	0	0	0	0	0	0	
20160101	0	20300101	0	50700	999999	0	0	1	1	0	150	0	0	0	0	7500	0	2000	0	500	0	0	0	ここでしか手に入らないキャラクターが必ず出現！しかもレアキャラ以上確定!!
20180101	0	20300101	0	50700	999999	0	0	2	2	33	30	0	0	0	0	7500	0	2000	0	500	0	0	0		23	30	0	0	0	0	7500	0	2000	0	500	0	0	0	
20180101	0	20300101	0	50700	999999	0	0	3	2	33	75	0	0	0	0	7500	0	2000	0	500	0	0	0		23	75	0	0	0	0	7500	0	2000	0	500	0	0	0	
20190817	1100	20300101	0	80800	999999	0	0	1	4	-1	150	0	0	0	0	7500	0	2000	0	500	0	0	0		-1	150	0	0	0	0	7500	0	2000	0	500	0	0	0		-1	150	0	0	0	0	7500	0	2000	0	500	0	0	0		401	0	0	0	0	0	0	0	0	0	10000	0	0	0	超激レアのキャラクターが必ず１体手に入る「プラチナガチャ」！
20190906	1100	20190913	1100	80900	999999	0	0	0	2	-1	150	0	2	500	0	7500	0	2000	0	500	0	0	0		5	0	0	2	500	0	7000	0	2000	0	500	0	0	0	高確率でキャッツアイが手に入るイベント限定特別ガチャ！　9月13日11時まで！
20190909	1100	20190911	1100	80900	999999	0	0	1	1	380	150	0	0	0	0	6970	0	2500	0	500	0	30	0	個性的で愉快な精霊を仲間にしよう！シークレット新参戦！？★詳細はバナーをタップ!!
20190911	1100	20190913	1100	80900	999999	0	0	1	1	392	150	0	0	0	0	6970	0	2500	0	500	0	30	0	にゃんこワールドの偉大なる神々！シークレット新参戦！？★詳細はバナーをタップ!!
20190906	1100	20300101	0	80900	999999	0	0	1	4	-1	150	0	0	0	0	7500	0	2000	0	500	0	0	0		-1	150	0	0	0	0	7500	0	2000	0	500	0	0	0		-1	150	0	0	0	0	7500	0	2000	0	500	0	0	0		407	0	0	0	0	0	0	0	0	0	10000	0	0	0	超激レアのキャラクターが必ず１体手に入る「プラチナガチャ」！
20190913	1100	20190927	2359	80900	999999	0	0	0	3	-1	0	0	0	0	0	0	0	0	0	0	0	0	0		-1	0	0	0	0	0	0	0	0	0	0	0	0	0		31	0	0	0	0	0	7400	0	2100	0	500	0	0	0	【期間限定】ちびネコ達が手に入る特別仕様のイベントガチャ！★9月27日まで！
20190916	1100	20191001	2359	80900	999999	0	0	0	4	-1	0	0	0	0	0	0	0	0	0	0	0	0	0		-1	0	0	0	0	0	0	0	0	0	0	0	0	0		-1	0	0	0	0	0	0	0	0	0	0	0	0	0		32	0	300	0	0	0	5100	0	3500	0	1400	0	0	0	【期間限定】ネコビタンとXPが手に入る特別仕様ガチャ！★10月1日まで！
20190913	1100	20190916	1100	80900	999999	0	0	1	1	406	150	0	3704	0	0	6500	0	2600	0	900	0	0	0	限定キャラ「影傑ダークダルターニャ」も参戦！★超激レア出現率が今だけ超アップ!!
20190916	1100	20190918	1100	80900	999999	0	0	1	1	369	150	0	3704	0	0	6970	0	2500	0	500	0	30	0	世界一即戦力になるにゃんこ達！シークレット新参戦！？★詳細はバナーをタップ!!
20190918	1100	20190920	1100	80900	999999	0	0	1	1	384	150	0	3704	0	0	6970	0	2500	0	500	0	30	0	正義と闇、２つの力を持つ救世主！シークレット新参戦！？★詳細はバナーをタップ!!
[end]
