[start]
20180109	1100	20300101	0	60700	999999	0	0	0	1	0	0	0	0	10000	0	0	0	0	0	0	0	0	0	
20160101	0	20300101	0	50700	999999	0	0	1	1	0	150	0	0	0	0	7500	0	2000	0	500	0	0	0	ここでしか手に入らないキャラクターが必ず出現！しかもレアキャラ以上確定!!
20180101	0	20300101	0	80200	999999	0	0	2	3	33	30	0	0	0	0	7500	0	2000	0	500	0	0	0		23	30	0	0	0	0	7500	0	2000	0	500	0	0	0		0	30	0	0	0	0	7500	0	2000	0	500	0	0	0	
20180101	0	20300101	0	80200	999999	0	0	3	3	33	75	0	0	0	0	7500	0	2000	0	500	0	0	0		23	75	0	0	0	0	7500	0	2000	0	500	0	0	0		0	75	0	0	0	0	7500	0	2000	0	500	0	0	0	
20200710	1100	20300101	000	90700	999999	0	0	1	4	-1	0	0	0	0	0	0	0	0	0	0	0	0	0		-1	0	0	0	0	0	0	0	0	0	0	0	0	0		-1	0	0	0	0	0	0	0	0	0	0	0	0	0		525	0	0	0	0	0	0	0	0	0	10000	0	0	0	超激レアのキャラクターが必ず１体手に入る「プラチナガチャ」！
20201009	1100	20300101	000	91000	999999	0	0	1	4	-1	0	0	0	0	0	0	0	0	0	0	0	0	0		-1	0	0	0	0	0	0	0	0	0	0	0	0	0		-1	0	0	0	0	0	0	0	0	0	0	0	0	0		543	0	0	0	0	0	0	0	0	0	10000	0	0	0	超激レアのキャラクターが必ず１体手に入る「プラチナガチャ」！
20201129	1100	20300101	0	100000	999999	0	0	1	5	-1	150	0	0	0	0	7500	0	2000	0	500	0	0	0		-1	150	0	0	0	0	7500	0	2000	0	500	0	0	0		-1	150	0	0	0	0	7500	0	2000	0	500	0	0	0		-1	150	0	0	0	0	7500	0	2000	0	500	0	0	0		551	0	0	0	0	0	0	0	0	0	9500	0	500	0	超激レア以上のキャラクターが必ず１体手に入る「レジェンドガチャ」！
20201226	1100	20210112	2359	100100	999999	0	0	0	3	-1	0	0	0	0	0	0	0	0	0	0	0	0	0		-1	0	0	0	0	0	0	0	0	0	0	0	0	0		57	0	0	0	0	0	7400	0	2100	0	500	0	0	0	【期間限定】ちびネコ達が手に入る特別仕様のイベントガチャ！
20210101	000	20210106	1100	100100	999999	0	0	0	2	-1	0	0	0	0	0	0	0	0	0	0	0	0	0		3	0	300	0	400	0	2000	0	7000	0	600	0	0	0	高確率でマタタビが手に入るイベント限定特別ガチャ！
20210106	1100	20210112	1100	100100	999999	0	0	0	2	-1	0	0	0	0	0	0	0	0	0	0	0	0	0		5	0	0	2	500	0	7000	0	2000	0	500	0	0	0	高確率でキャッツアイが手に入るイベント限定特別ガチャ！
20201226	1100	20300101	000	100100	999999	0	0	1	5	-1	0	0	0	0	0	0	0	0	0	0	0	0	0		-1	0	0	0	0	0	0	0	0	0	0	0	0	0		-1	0	0	0	0	0	0	0	0	0	0	0	0	0		-1	0	0	0	0	0	0	0	0	0	0	0	0	0		557	0	0	0	0	0	0	0	0	0	9500	0	500	0	超激レア以上のキャラクターが必ず１体手に入る「レジェンドガチャ」！
20210101	000	20300101	000	100100	999999	0	0	1	4	-1	0	0	0	0	0	0	0	0	0	0	0	0	0		-1	0	0	0	0	0	0	0	0	0	0	0	0	0		-1	0	0	0	0	0	0	0	0	0	0	0	0	0		556	0	0	0	0	0	0	0	0	0	10000	0	0	0	超激レアのキャラクターが必ず１体手に入る「プラチナガチャ」！
20210101	000	20300101	000	100100	999999	0	0	1	5	-1	0	0	0	0	0	0	0	0	0	0	0	0	0		-1	0	0	0	0	0	0	0	0	0	0	0	0	0		-1	0	0	0	0	0	0	0	0	0	0	0	0	0		-1	0	0	0	0	0	0	0	0	0	0	0	0	0		558	0	0	0	0	0	0	0	0	0	9500	0	500	0	超激レア以上のキャラクターが必ず１体手に入る「レジェンドガチャ」！
20210104	1100	20210112	1100	100100	999999	0	0	1	1	560	150	0	4136	0	0	6970	0	2500	0	500	0	30	0	期間限定キャラも登場する、特別仕様の新年ガチャ！★詳細はバナーをタップ!!
20210104	1100	20210106	1100	100100	999999	0	0	1	2	-1	0	0	0	0	0	0	0	0	0	0	0	0	0		538	150	0	4136	0	0	6970	0	2500	0	500	0	30	0	新キャラ「石の精霊ゴロー」参戦！個性的で愉快な精霊達！★詳細はバナーをタップ!!
20210106	1100	20210108	1100	100100	999999	0	0	1	2	-1	0	0	0	0	0	0	0	0	0	0	0	0	0		517	150	0	4136	0	0	6970	0	2500	0	500	0	30	0	新キャラ「オイルガ」参戦！謎だらけのキモかわ生命体！★詳細はバナーをタップ!!
20210108	1100	20210112	1100	100100	999999	0	0	1	1	560	150	0	4136	0	0	6970	0	2500	0	500	1	30	0	期間限定キャラも登場する、特別仕様の新年ガチャ！★11連で超激レア確定!!
20210108	1100	20210110	1100	100100	999999	0	0	1	2	-1	0	0	0	0	0	0	0	0	0	0	0	0	0		427	150	0	4136	0	0	6970	0	2500	0	500	1	30	0	黒い敵相手に大暴れ！強力な効果を持つ戦国武将達！★詳細はバナーをタップ!!
20210110	1100	20210112	1100	100100	999999	0	0	1	2	-1	0	0	0	0	0	0	0	0	0	0	0	0	0		506	150	0	4136	0	0	6970	0	2500	0	500	1	30	0	異世界より召喚された愉快な美少女達！シークレット美少女参戦！★詳細はバナーをタップ!!
20210112	1100	20210114	1100	100100	999999	0	0	1	1	487	150	0	0	0	0	6970	0	2500	0	500	0	30	0	正義と闇の力を併せ持つ、にゃんこ軍団の救世主達！★詳細はバナーをタップ!!
20210114	1100	20210115	1100	100100	999999	0	0	1	1	424	150	0	0	0	0	6970	0	2500	0	500	0	30	0	バラエティ豊富な世界一即戦力になるにゃんこ達！★詳細はバナーをタップ!!
20210115	1100	20210118	1100	100100	999999	0	0	1	1	542	150	0	0	0	0	6500	0	2600	0	900	0	0	0	超激レアキャラが一堂に集結!!★超激レア出現率超アップの「極ネコ祭」開催中!!
20210116	1100	20210201	2359	100100	999999	0	0	0	4	-1	0	0	0	0	0	0	0	0	0	0	0	0	0		-1	0	0	0	0	0	0	0	0	0	0	0	0	0		-1	0	0	0	0	0	0	0	0	0	0	0	0	0		56	0	300	0	0	0	5100	0	3500	0	1400	0	0	0	【期間限定】ネコビタンとXPが手に入る特別仕様ガチャ！
[end]
