[start]
20180109	1100	20300101	0	60700	999999	0	0	0	1	0	0	0	0	10000	0	0	0	0	0	0	0	0	0	
20160101	0	20300101	0	50700	999999	0	0	1	1	0	150	0	0	0	0	7500	0	2000	0	500	0	0	0	ここでしか手に入らないキャラクターが必ず出現！しかもレアキャラ以上確定!!
20180101	0	20300101	0	80200	999999	0	0	2	3	33	30	0	0	0	0	7500	0	2000	0	500	0	0	0		23	30	0	0	0	0	7500	0	2000	0	500	0	0	0		0	30	0	0	0	0	7500	0	2000	0	500	0	0	0	
20180101	0	20300101	0	80200	999999	0	0	3	3	33	75	0	0	0	0	7500	0	2000	0	500	0	0	0		23	75	0	0	0	0	7500	0	2000	0	500	0	0	0		0	75	0	0	0	0	7500	0	2000	0	500	0	0	0	
20200710	1100	20300101	000	90700	999999	0	0	1	4	-1	0	0	0	0	0	0	0	0	0	0	0	0	0		-1	0	0	0	0	0	0	0	0	0	0	0	0	0		-1	0	0	0	0	0	0	0	0	0	0	0	0	0		525	0	0	0	0	0	0	0	0	0	10000	0	0	0	超激レアのキャラクターが必ず１体手に入る「プラチナガチャ」！
20201009	1100	20300101	000	91000	999999	0	0	1	4	-1	0	0	0	0	0	0	0	0	0	0	0	0	0		-1	0	0	0	0	0	0	0	0	0	0	0	0	0		-1	0	0	0	0	0	0	0	0	0	0	0	0	0		543	0	0	0	0	0	0	0	0	0	10000	0	0	0	超激レアのキャラクターが必ず１体手に入る「プラチナガチャ」！
20201129	1100	20300101	0	100000	999999	0	0	1	5	-1	150	0	0	0	0	7500	0	2000	0	500	0	0	0		-1	150	0	0	0	0	7500	0	2000	0	500	0	0	0		-1	150	0	0	0	0	7500	0	2000	0	500	0	0	0		-1	150	0	0	0	0	7500	0	2000	0	500	0	0	0		551	0	0	0	0	0	0	0	0	0	9500	0	500	0	超激レア以上のキャラクターが必ず１体手に入る「レジェンドガチャ」！
20201226	1100	20300101	000	100100	999999	0	0	1	5	-1	0	0	0	0	0	0	0	0	0	0	0	0	0		-1	0	0	0	0	0	0	0	0	0	0	0	0	0		-1	0	0	0	0	0	0	0	0	0	0	0	0	0		-1	0	0	0	0	0	0	0	0	0	0	0	0	0		557	0	0	0	0	0	0	0	0	0	9500	0	500	0	超激レア以上のキャラクターが必ず１体手に入る「レジェンドガチャ」！
20210101	000	20300101	000	100100	999999	0	0	1	4	-1	0	0	0	0	0	0	0	0	0	0	0	0	0		-1	0	0	0	0	0	0	0	0	0	0	0	0	0		-1	0	0	0	0	0	0	0	0	0	0	0	0	0		556	0	0	0	0	0	0	0	0	0	10000	0	0	0	超激レアのキャラクターが必ず１体手に入る「プラチナガチャ」！
20210101	000	20300101	000	100100	999999	0	0	1	5	-1	0	0	0	0	0	0	0	0	0	0	0	0	0		-1	0	0	0	0	0	0	0	0	0	0	0	0	0		-1	0	0	0	0	0	0	0	0	0	0	0	0	0		-1	0	0	0	0	0	0	0	0	0	0	0	0	0		558	0	0	0	0	0	0	0	0	0	9500	0	500	0	超激レア以上のキャラクターが必ず１体手に入る「レジェンドガチャ」！
20210305	1100	20300101	000	100300	999999	0	0	1	4	-1	0	0	0	0	0	0	0	0	0	0	0	0	0		-1	0	0	0	0	0	0	0	0	0	0	0	0	0		-1	0	0	0	0	0	0	0	0	0	0	0	0	0		577	0	0	0	0	0	0	0	0	0	10000	0	0	0	超激レアのキャラクターが必ず１体手に入る「プラチナガチャ」！
20210305	1100	20300101	000	100300	999999	0	0	1	5	-1	0	0	0	0	0	0	0	0	0	0	0	0	0		-1	0	0	0	0	0	0	0	0	0	0	0	0	0		-1	0	0	0	0	0	0	0	0	0	0	0	0	0		-1	0	0	0	0	0	0	0	0	0	0	0	0	0		578	0	0	0	0	0	0	0	0	0	9500	0	500	0	超激レア以上のキャラクターが必ず１体手に入る「レジェンドガチャ」！
20210426	1100	20300101	000	100400	999999	0	0	0	3	-1	0	0	0	0	0	0	0	0	0	0	0	0	0		-1	0	0	0	0	0	0	0	0	0	0	0	0	0		62	0	0	0	0	0	7400	0	2100	0	500	0	0	0	ちびネコ達が手に入る特別仕様のイベントガチャ！
20210316	1100	20300101	000	100400	999999	0	0	0	4	-1	0	0	0	0	0	0	0	0	0	0	0	0	0		-1	0	0	0	0	0	0	0	0	0	0	0	0	0		-1	0	0	0	0	0	0	0	0	0	0	0	0	0		63	0	300	0	0	0	5100	0	3500	0	1400	0	0	0	ネコビタンとXPが手に入る特別仕様ガチャ！
20210412	1100	20210426	1100	100400	999999	0	0	1	1	588	150	0	0	0	0	7000	0	2500	0	500	0	0	0	合計9体の限定キャラが登場！「らんま1/2」コラボガチャ！★詳細はバナーをタップ!!
20210416	1100	20210419	1100	100400	999999	0	0	1	1	576	150	0	0	0	0	6500	0	2600	0	900	0	0	0	超激レアキャラが一堂に集結!!★超激レア出現率超アップの「極ネコ祭」開催中!!
20210416	1100	20210426	1100	100400	999999	0	0	1	2	-1	0	0	0	0	0	0	0	0	0	0	0	0	0		588	150	0	0	0	0	7000	0	2500	0	500	0	0	0	合計9体の限定キャラが登場！「らんま1/2」コラボガチャ！★詳細はバナーをタップ!!
20210419	1100	20210421	1100	100400	999999	0	0	1	2	-1	0	0	0	0	0	0	0	0	0	0	0	0	0		475	150	0	0	0	0	6970	0	2500	0	500	0	30	0	にゃんこワールド最大級の仰天進化を遂げる古代の勇者達！★詳細はバナーをタップ!!
20210421	1100	20210426	1100	100400	999999	0	0	1	1	588	150	0	0	0	0	7000	0	2500	0	500	1	0	0	合計9体の限定キャラが登場！「らんま1/2」コラボガチャ！★11連で超激レア確定!!
20210421	1100	20210423	1100	100400	999999	0	0	1	2	-1	0	0	0	0	0	0	0	0	0	0	0	0	0		433	150	0	0	0	0	6970	0	2500	0	500	1	30	0	圧倒的な存在感を放つ、強力なドラゴン達を手に入れよう！★詳細はバナーをタップ!!
20210423	1100	20210426	1100	100400	999999	0	0	1	2	-1	0	0	0	0	0	0	0	0	0	0	0	0	0		538	150	0	0	0	0	6970	0	2500	0	500	1	30	0	宇宙の果てからやって来た、個性的で愉快な精霊達！★詳細はバナーをタップ!!
20210426	1100	20210429	1100	100500	999999	0	0	1	1	552	150	0	4216	0	0	6970	0	2500	0	500	0	30	0	8と1/2周年記念！感謝の気持ちを込めた特別なガチャ！★詳細はバナーをタップ!!
20210426	1100	20210429	1100	100500	999999	0	0	1	2	-1	0	0	0	0	0	0	0	0	0	0	0	0	0		517	150	0	4216	0	0	6970	0	2500	0	500	0	30	0	謎に包まれたキモかわ生命体！「伝説のネコルガ族」★詳細はバナーをタップ!!
20210429	1100	20210501	1100	100500	999999	0	0	1	1	553	150	0	4216	0	0	6970	0	2500	0	500	0	30	0	8と1/2周年記念！感謝の気持ちを込めた特別なガチャ！★詳細はバナーをタップ!!
20210429	1100	20210501	1100	100500	999999	0	0	1	2	-1	0	0	0	0	0	0	0	0	0	0	0	0	0		487	150	0	4216	0	0	6970	0	2500	0	500	0	30	0	正義と闇の力を併せ持つ、にゃんこ軍団の救世主達！★詳細はバナーをタップ!!
20210426	1100	20210503	1100	100500	999999	0	0	0	2	-1	0	0	0	0	0	0	0	0	0	0	0	0	0		5	0	0	2	500	0	7000	0	2000	0	500	0	0	0	高確率でキャッツアイが手に入るイベント限定特別ガチャ！
[end]
